…
#### Above is the plot of value against time by each participant. In the experimental group, we can see a increasing trend as time goes on. In the control group, we see a flat pattern.

Problem 2
=========

``` r
homicide_data= read_csv(file="./homicide-data.csv") %>%
   mutate(city_state=paste(city,state,sep=", ")) 

homicide_data
```

    ## # A tibble: 52,179 x 13
    ##    uid   reported_date victim_last victim_first victim_race victim_age
    ##    <chr>         <int> <chr>       <chr>        <chr>       <chr>     
    ##  1 Alb-~      20100504 GARCIA      JUAN         Hispanic    78        
    ##  2 Alb-~      20100216 MONTOYA     CAMERON      Hispanic    17        
    ##  3 Alb-~      20100601 SATTERFIELD VIVIANA      White       15        
    ##  4 Alb-~      20100101 MENDIOLA    CARLOS       Hispanic    32        
    ##  5 Alb-~      20100102 MULA        VIVIAN       White       72        
    ##  6 Alb-~      20100126 BOOK        GERALDINE    White       91        
    ##  7 Alb-~      20100127 MALDONADO   DAVID        Hispanic    52        
    ##  8 Alb-~      20100127 MALDONADO   CONNIE       Hispanic    52        
    ##  9 Alb-~      20100130 MARTIN-LEY~ GUSTAVO      White       56        
    ## 10 Alb-~      20100210 HERRERA     ISRAEL       Hispanic    43        
    ## # ... with 52,169 more rows, and 7 more variables: victim_sex <chr>,
    ## #   city <chr>, state <chr>, lat <dbl>, lon <dbl>, disposition <chr>,
    ## #   city_state <chr>

#### The dataset has 13 variables and 52179 observations. The main variables are id, date, victim first name, last name, race and age.

``` r
homicide_data %>% 
   group_by(city_state) %>% 
   count(city_state)
```

    ## # A tibble: 51 x 2
    ## # Groups:   city_state [51]
    ##    city_state          n
    ##    <chr>           <int>
    ##  1 Albuquerque, NM   378
    ##  2 Atlanta, GA       973
    ##  3 Baltimore, MD    2827
    ##  4 Baton Rouge, LA   424
    ##  5 Birmingham, AL    800
    ##  6 Boston, MA        614
    ##  7 Buffalo, NY       521
    ##  8 Charlotte, NC     687
    ##  9 Chicago, IL      5535
    ## 10 Cincinnati, OH    694
    ## # ... with 41 more rows

``` r
#Above is the total number of homicides in each city

homicide_data %>% 
   filter(disposition == "Closed without arrest" | disposition == "Open/No arrest") %>% 
   group_by(city_state) %>% 
   count(city_state)
```

    ## # A tibble: 50 x 2
    ## # Groups:   city_state [50]
    ##    city_state          n
    ##    <chr>           <int>
    ##  1 Albuquerque, NM   146
    ##  2 Atlanta, GA       373
    ##  3 Baltimore, MD    1825
    ##  4 Baton Rouge, LA   196
    ##  5 Birmingham, AL    347
    ##  6 Boston, MA        310
    ##  7 Buffalo, NY       319
    ##  8 Charlotte, NC     206
    ##  9 Chicago, IL      4073
    ## 10 Cincinnati, OH    309
    ## # ... with 40 more rows
…
